{
  "swagger": "2.0",
  "info": {
    "version": "1.0.0",
    "title": "Top Pricing Service",
    "description": "Gets the top most expensive and least expensive items.",
    "license": {
      "name": "MIT"
    }
  },
  "basePath": "/",
  "schemes": [
    "http",
    "https"
  ],
  "consumes": [
    "application/json"
  ],
  "produces": [
    "application/json"
  ],
  "paths": {
    "/mostExpensive": {
      "get": {
        "summary": "get the top x (defaults to 10) most expense items",
        "operationId": "mostExpensive",
        "tags": [
          "Get Items"
        ],
        "parameters": [
          {
            "type": "integer",
            "in": "query",
            "name": "count",
            "default": 10
          }
        ],
        "responses": {
          "200": {
            "description": "list of the most expensive items",
            "schema": {
              "$ref": "#/definitions/Items"
            }
          },
          "default": {
            "description": "unexpected error",
            "schema": {
              "$ref": "#/definitions/Error"
            }
          }
        }
      }
    },
    "/leastExpensive": {
      "get": {
        "summary": "get the top x (defaults to 10) most least items",
        "operationId": "leastExpensive",
        "tags": [
          "Get Items"
        ],
        "parameters": [
          {
            "type": "integer",
            "in": "query",
            "name": "count",
            "default": 10
          }
        ],
        "responses": {
          "200": {
            "description": "list of the least expensive items",
            "schema": {
              "$ref": "#/definitions/Items"
            }
          },
          "default": {
            "description": "unexpected error",
            "schema": {
              "$ref": "#/definitions/Error"
            }
          }
        }
      }
    }
  },
  "definitions": {
    "Items": {
      "type": "array",
      "items": {
        "$ref": "#/definitions/Item"
      }
    },
    "Item": {
      "properties": {
        "title": {
          "type": "number"
        },
        "salePrice": {
          "type": "number"
        },
        "images": {
          "type": "array",
          "items": {
            "type": "string"
          }
        },
        "category": {
          "type": "array",
          "items": {
            "type": "string"
          }
        },
        "description": {
          "type": "number"
        },
        "terms": {
          "type": "number"
        },
        "manufacturer": {
          "type": "number"
        },
        "categorySlug": {
          "type": "number"
        },
        "msrp": {
          "type": "number"
        },
        "productUrl": {
          "type": "number"
        }
      }
    },
    "Error": {
      "required": [
        "code",
        "message"
      ],
      "properties": {
        "code": {
          "type": "integer",
          "format": "int32"
        },
        "message": {
          "type": "string"
        }
      }
    }
  }
}